{
  "$schema": "https://json.schemastore.org/nest-cli",
  "collection": "@nestjs/schematics",
  "sourceRoot": "src",
  "compilerOptions": {
    "assets": [
      "i18n/**/*",
      "modules/mail/templates/**/*",
      "modules/resume/templates/**/*"
    ],
    "watchAssets": true
  }
}
